{
  "femaleName": "",
  "femaleAge": 0,
  "femaleResult": "",
  "maleName": "",
  "maleAge": 0,
  "maleResult": "",
  "sampleType": [
    ""
  ],
  "sendDate": "",
  "detectionProjects": [
    ""
  ],
  "selfGeneticDisease": false,
  "selfGeneticDiseaseDesc": "",
  "relativesGeneticDisease": false,
  "relativesGeneticDiseaseDesc": "",
  "intermarry": false,
  "hasChildren": false,
  "childrenCount": 0,
  "boysCount": 0,
  "girlsCount": 0,
  "childrenHealthy": true,
  "childrenDiagnosis": "",
  "hasAbortion": false,
  "abortionNumber": 0,
  "pregnancyNumber": 0,
  "birthNumber": 0,
  "fetusNumber": 0,
  "pregnancyWeeks": 0,
  "pregnancyDays": 0,
  "ultrasoundNt": 0,
  "otherDysplasia": "",
  "hasKaryotypeAnalysis": false,
  "karyotypeAnalysisDesc": "",
  "samples": [
    {
      "type": "",
      "relation": "",
      "relationId": "",
      "name": "",
      "number": "",
      "barCode": "",
      "r280": "",
      "r230": "",
      "density": "",
      "volume": ""
    }
  ],
  "clientNumber": "",
  "project": "",
  "projectId": "",
  "laboratory": "",
  "organization": "",
  "department": "",
  "physician": "",
  "phone": "",
  "email": "",
  "sender": "",
  "senderPhone": "",
  "projectType": "",
  "otherProjectType": ""
}